<?xml version="1.0" ?>
<!-- =================================================================================== -->
<!-- |    This document was autogenerated by xacro from /home/corinaba/catkin_ws/src/kraft_whoi/droplab_kraftarm/src/kraft_arm_description/robot/g500ARM5MINI.urdf.xacro | -->
<!-- |    EDITING THIS FILE BY HAND IS NOT RECOMMENDED                                 | -->
<!-- =================================================================================== -->
<robot name="girona500" xmlns:xacro="http://www.ros.org/wiki/xacro">
  <link name="base_link">
    <!--<inertial>
      <mass value="95" />
      <inertia ixx="100"  ixy="0"  ixz="0" iyy="100" iyz="0" izz="100" />
    </inertial> -->
    <visual>
      <!-- <origin rpy="-${pi/2} 0 ${pi}" xyz="-0.2 0 0.75"/> -->
      <origin rpy="0 0 0" xyz="0 0 0"/>
      <geometry>
        <mesh filename="package://kraft_arm_description/meshes/NHTKtaft/NHT_lite.STL"/> 
        <!--box size="0.8 0.5 0.5"/> -->
      </geometry>
    </visual>
  </link>
  <link name="part0">
    <visual>
      <origin rpy="-1.57 0 0" xyz="2.0 0 0"/>
      <geometry>
        <mesh filename="package://kraft_arm_description/meshes/NHTKtaft/NHT_Drawer.STL"/>
      </geometry>
    </visual>
  </link>
  <joint name="baselink_to_part0" type="fixed">
    <parent link="base_link"/>
    <child link="part0"/>
    <!-- <origin rpy="0 0 ${pi}" xyz="0 0 0.95"/> -->
    <origin rpy="0 0 0" xyz="0 0 0"/>
  </joint>
  <link name="kinematic_base">
    <visual>
      <origin
        xyz="0 0 0"
        rpy="0 0 0" />
      <geometry>
        <mesh
          filename="package://kraft_arm_description/meshes/KRAFTARM/Base_Decimated.STL" />
      </geometry>
      <material
        name="">
        <color
          rgba="0.752941176470588 0.752941176470588 0.752941176470588 1" />
      </material>
    </visual>
  </link>
  <joint name="part0_to_kinematic_base" type="fixed">
    <parent link="part0"/>
    <child link="kinematic_base"/>
    <origin rpy="0 0 0" xyz="0 0 0"/>
  </joint>
  <link name="Azimuth">
    <visual>
      <origin rpy="0 0 0" xyz="0.0 0 0"/>
      <geometry>
        <mesh filename="package://arm5emini_description/meshes/ARM5EMINI/Azimuth_Decimated.STL"/>
      </geometry>
    </visual>
  </link>
  <joint name="Slew" type="revolute">
    <axis xyz="0 -1 0"/>
    <!-- <limit upper="0.5488" lower="-1.5708" effort="1000.0" velocity="1.0"/> -->
    <limit effort="1000.0" lower="-2.35619" upper="2.35619" velocity="6.0"/>
    <parent link="kinematic_base"/>
    <child link="Azimuth"/>
    <origin rpy="1.5708 0 0" xyz="0 0 0"/>
    <!-- La distancia base_link - base cinematica es 1.08. -->
  </joint>
  <link name="UpperArm">
    <visual>
      <origin rpy="0 0 0" xyz="0 0 0"/>
      <!-- rpy="1.57 -0.209 0" xyz="0 0 0" -->
      <geometry>
        <mesh filename="package://kraft_arm_description/meshes/KRAFTARM/UpperArm_Decimated.STL"/>
      </geometry>
    </visual>
  </link>
  <joint name="Shoulder" type="revolute">
    <parent link="Azimuth"/>
    <child link="UpperArm"/>
    <axis xyz="0 0 1"/>
    <!--   <origin rpy="0 0 0" xyz="0.116056 -0.000846 0.00578"/>
    <limit effort="1000.0" lower="-1.58665" upper="0" velocity="1.0"/> -->
    <origin rpy="0 0 0" xyz="0.085835 0.24676 0"/>
    <limit effort="1000.0" lower="-1.5708" upper="0.0" velocity="6.0"/>
  </joint>
  <link name="Forearm">
    <visual>
      <origin rpy="0 0 0" xyz="0 0 0"/>
      <geometry>
        <mesh filename="package://kraft_arm_description/meshes/KRAFTARM/Forearm_Decimated.STL"/>
      </geometry>
    </visual>
  </link>
  <joint name="Elbow" type="revolute">
    <parent link="UpperArm"/>
    <child link="Forearm"/>
    <axis xyz="0 1 0"/>
    <!-- <origin rpy="0 0 0" xyz="0.314657 0.006932 -0.008124"/>    
    <limit effort="1000.0" lower="0" upper="2.15294" velocity="1.0"/> -->
    <origin rpy="0 0.41503965 0" xyz="0.314657 0.006932 -0.008124"/>
    <limit effort="1000.0" lower="0" upper="2.41379" velocity="1.0"/>
  </joint>
  <link name="part4_base">
    <visual>
      <origin rpy="0 0 0" xyz="0 0 0"/>
      <!-- TEMPORAL: para compensar la pieza que falta -->
      <geometry>
        <mesh filename="package://arm5emini_description/meshes/ARM5EMINI/ARM5EMINI_part4_base.dae"/>
      </geometry>
    </visual>
  </link>
  <joint name="JawRotate" type="continuous">
    <parent link="Forearm"/>
    <child link="part4_base"/>
    <axis xyz="1 0 0"/>
    <origin rpy="0 0 0" xyz="0.241986 0.001725 0.091744"/>
  </joint>
  <link name="end_effector">
    <!-- From the kinematic base of the robot -->
  </link>
  <joint name="part4_base_to_end_effector" type="fixed">
    <parent link="part4_base"/>
    <child link="end_effector"/>
    <origin rpy="0 0 0" xyz=".1 0 0"/>
  </joint>
  <link name="part4_jaw1">
    <visual>
      <origin rpy="0 0 0" xyz="0 0 0"/>
      <geometry>
        <mesh filename="package://arm5emini_description/meshes/ARM5EMINI/ARM5EMINI_part4_jaw1.dae"/>
      </geometry>
    </visual>
  </link>
  <joint name="JawOpening" type="revolute">
    <parent link="part4_base"/>
    <child link="part4_jaw1"/>
    <axis xyz="0 1 0"/>
    <origin rpy="0 0 0" xyz="0.047265 0.00031 0.038676"/>
    <!-- x era 0.07-->
    <limit effort="1000.0" lower="-1.337696" upper="0.05816" velocity="1.0"/>
  </joint>
  <link name="part4_jaw2">
    <visual>
      <origin rpy="0 0 0" xyz="0 0 0"/>
      <geometry>
        <mesh filename="package://arm5emini_description/meshes/ARM5EMINI/ARM5EMINI_part4_jaw2.dae"/>
      </geometry>
    </visual>
  </link>
  <joint name="part4_to_link4_jaw2" type="continuous">
    <parent link="part4_base"/>
    <child link="part4_jaw2"/>
    <axis xyz="0 1 0"/>
    <origin rpy="0 0 0" xyz="0.045524 -0.0015 -0.040454"/>
    <!-- x era 0.07-->
    <mimic joint="JawOpening" multiplier="-1" offset="0"/>
  </joint>
</robot>
